{
	"id": "0c6b6051-ff1a-468d-8096-322d2a828ffc",
	"name": "Contact List",
	"values": [
		{
			"key": "contactID",
			"value": "",
			"type": "any",
			"enabled": true
		},
		{
			"key": "contactID2",
			"value": "",
			"type": "any",
			"enabled": true
		}
	],
	"_postman_variable_scope": "environment",
	"_postman_exported_at": "2023-01-12T21:20:47.211Z",
	"_postman_exported_using": "Postman/10.7.1"
}